{
    "AFFILIATE_COOKIE_NAME": "dev_affiliate_id", 
    "ANALYTICS_DASHBOARD_URL": "http://localhost:18110/courses", 
    "ANALYTICS_DATA_URL": "", 
    "ANALYTICS_SERVER_URL": "", 
    "AWS_SES_REGION_ENDPOINT": "email.us-east-1.amazonaws.com", 
    "AWS_SES_REGION_NAME": "us-east-1", 
    "BOOK_URL": "", 
    "BUGS_EMAIL": "bugs@example.com", 
    "BULK_EMAIL_DEFAULT_FROM_EMAIL": "no-reply@example.com", 
    "BULK_EMAIL_EMAILS_PER_TASK": 500, 
    "BULK_EMAIL_LOG_SENT_EMAILS": false, 
    "CACHES": {
        "celery": {
            "BACKEND": "django.core.cache.backends.memcached.MemcachedCache", 
            "KEY_FUNCTION": "util.memcache.safe_key", 
            "KEY_PREFIX": "celery", 
            "LOCATION": [
                "localhost:11211"
            ], 
            "TIMEOUT": "7200"
        }, 
        "configuration": {
            "BACKEND": "django.core.cache.backends.memcached.MemcachedCache", 
            "KEY_FUNCTION": "util.memcache.safe_key", 
            "KEY_PREFIX": "cbt", 
            "LOCATION": [
                "localhost:11211"
            ]
        }, 
        "course_structure_cache": {
            "BACKEND": "django.core.cache.backends.memcached.MemcachedCache", 
            "KEY_FUNCTION": "util.memcache.safe_key", 
            "KEY_PREFIX": "course_structure", 
            "LOCATION": [
                "localhost:11211"
            ], 
            "TIMEOUT": "7200"
        }, 
        "default": {
            "BACKEND": "django.core.cache.backends.memcached.MemcachedCache", 
            "KEY_FUNCTION": "util.memcache.safe_key", 
            "KEY_PREFIX": "default", 
            "LOCATION": [
                "localhost:11211"
            ], 
            "VERSION": "1"
        }, 
        "general": {
            "BACKEND": "django.core.cache.backends.memcached.MemcachedCache", 
            "KEY_FUNCTION": "util.memcache.safe_key", 
            "KEY_PREFIX": "general", 
            "LOCATION": [
                "localhost:11211"
            ]
        }, 
        "mongo_metadata_inheritance": {
            "BACKEND": "django.core.cache.backends.memcached.MemcachedCache", 
            "KEY_FUNCTION": "util.memcache.safe_key", 
            "KEY_PREFIX": "mongo_metadata_inheritance", 
            "LOCATION": [
                "localhost:11211"
            ], 
            "TIMEOUT": 300
        }, 
        "staticfiles": {
            "BACKEND": "django.core.cache.backends.memcached.MemcachedCache", 
            "KEY_FUNCTION": "util.memcache.safe_key", 
            "KEY_PREFIX": "cbt_general", 
            "LOCATION": [
                "localhost:11211"
            ]
        }
    }, 
    "CAS_ATTRIBUTE_CALLBACK": "", 
    "CAS_EXTRA_LOGIN_PARAMS": "", 
    "CAS_SERVER_URL": "", 
    "CDN_VIDEO_URLS": {}, 
    "CELERY_BROKER_HOSTNAME": "localhost", 
    "CELERY_BROKER_TRANSPORT": "amqp", 
    "CELERY_BROKER_VHOST": "", 
    "CERT_QUEUE": "certificates", 
    "CMS_BASE": "localhost:18010", 
    "CODE_JAIL": {
        "limits": {
            "CPU": 1, 
            "FSIZE": 1048576, 
            "PROXY": 0, 
            "REALTIME": 3, 
            "VMEM": 536870912
        }, 
        "python_bin": "/edx/app/edxapp/venvs/edxapp-sandbox/bin/python", 
        "user": "sandbox"
    }, 
    "COMMENTS_SERVICE_KEY": "password", 
    "COMMENTS_SERVICE_URL": "http://localhost:18080", 
    "COMPREHENSIVE_THEME_DIR": "", 
    "COMPREHENSIVE_THEME_DIRS": [
        ""
    ], 
    "CONTACT_EMAIL": "info@example.com", 
    "CORS_ORIGIN_ALLOW_ALL": false, 
    "CORS_ORIGIN_WHITELIST": [], 
    "COURSES_WITH_UNSAFE_CODE": [], 
    "COURSE_CATALOG_API_URL": "http://localhost:8008/api/v1", 
    "CROSS_DOMAIN_CSRF_COOKIE_DOMAIN": "", 
    "CROSS_DOMAIN_CSRF_COOKIE_NAME": "", 
    "CSRF_COOKIE_SECURE": false, 
    "DEFAULT_FEEDBACK_EMAIL": "feedback@example.com", 
    "DEFAULT_FILE_STORAGE": "django.core.files.storage.FileSystemStorage", 
    "DEFAULT_FROM_EMAIL": "registration@example.com", 
    "DEFAULT_SITE_THEME": "", 
    "DEPRECATED_ADVANCED_COMPONENT_TYPES": [], 
    "ECOMMERCE_API_URL": "http://localhost:8002/api/v2", 
    "ECOMMERCE_PUBLIC_URL_ROOT": "http://localhost:8002", 
    "EDXMKTG_USER_INFO_COOKIE_NAME": "edx-user-info", 
    "EMAIL_BACKEND": "django.core.mail.backends.smtp.EmailBackend", 
    "EMAIL_HOST": "localhost", 
    "EMAIL_PORT": 25, 
    "EMAIL_USE_TLS": false, 
    "ENABLE_COMPREHENSIVE_THEMING": false, 
    "FEATURES": {
        "USE_MICROSITES": true,
        "ENTRANCE_EXAMS": false,
        "EDITABLE_SHORT_DESCRIPTION": false,
        "LICENSING": false,
        "AUTH_USE_OPENID_PROVIDER": true, 
        "AUTOMATIC_AUTH_FOR_TESTING": false, 
        "CUSTOM_COURSES_EDX": false, 
        "ENABLE_COMBINED_LOGIN_REGISTRATION": true, 
        "ENABLE_CORS_HEADERS": false, 
        "ENABLE_COUNTRY_ACCESS": false, 
        "ENABLE_CREDIT_API": false, 
        "ENABLE_CREDIT_ELIGIBILITY": false, 
        "ENABLE_CROSS_DOMAIN_CSRF_COOKIE": false, 
        "ENABLE_CSMH_EXTENDED": true, 
        "ENABLE_DISCUSSION_HOME_PANEL": true, 
        "ENABLE_DISCUSSION_SERVICE": true, 
        "ENABLE_EDXNOTES": false, 
        "ENABLE_GRADE_DOWNLOADS": true, 
        "ENABLE_INSTRUCTOR_ANALYTICS": false, 
        "ENABLE_MKTG_SITE": false, 
        "ENABLE_MOBILE_REST_API": false, 
        "ENABLE_OAUTH2_PROVIDER": false, 
        "ENABLE_ONLOAD_BEACON": false, 
        "ENABLE_READING_FROM_MULTIPLE_HISTORY_TABLES": true, 
        "ENABLE_SPECIAL_EXAMS": true, 
        "ENABLE_SYSADMIN_DASHBOARD": false, 
        "ENABLE_THIRD_PARTY_AUTH": false, 
        "ENABLE_VIDEO_BEACON": false, 
        "ENABLE_VIDEO_UPLOAD_PIPELINE": false, 
        "PREVIEW_LMS_BASE": "preview.localhost:18020", 
        "USE_CUSTOM_THEME": false
    }, 
    "FEEDBACK_SUBMISSION_EMAIL": "", 
    "FILE_UPLOAD_STORAGE_BUCKET_NAME": "SET-ME-PLEASE (ex. bucket-name)", 
    "FILE_UPLOAD_STORAGE_PREFIX": "submissions_attachments", 
    "FINANCIAL_REPORTS": {
        "BUCKET": null, 
        "ROOT_PATH": "sandbox", 
        "STORAGE_TYPE": "localfs"
    }, 
    "FOOTER_ORGANIZATION_IMAGE": "images/logo.png", 
    "GITHUB_REPO_ROOT": "/edx/var/edxapp/data", 
    "GIT_REPO_EXPORT_DIR": "/edx/var/edxapp/export_course_repos", 
    "GRADES_DOWNLOAD": {
        "BUCKET": "", 
        "ROOT_PATH": "", 
        "STORAGE_CLASS": "django.core.files.storage.FileSystemStorage", 
        "STORAGE_KWARGS": {
            "location": "/tmp/edx-s3/grades"
        }, 
        "STORAGE_TYPE": ""
    }, 
    "JWT_AUTH": {
        "JWT_AUDIENCE": "lms-key", 
        "JWT_ISSUER": "https://localhost:80/oauth2", 
        "JWT_SECRET_KEY": "lms-secret"
    }, 
    "JWT_EXPIRATION": 30, 
    "JWT_ISSUER": "https://localhost:80/oauth2", 
    "LANGUAGE_CODE": "en", 
    "LMS_BASE": "localhost:80", 
    "LOCAL_LOGLEVEL": "INFO", 
    "LOGGING_ENV": "sandbox", 
    "LOG_DIR": "/edx/var/logs/edx", 
    "MEDIA_ROOT": "/edx/var/edxapp/media/", 
    "MEDIA_URL": "/media/", 
    "MICROSITE_CONFIGURATION": {
      "akmil": {
        "domain_prefix": "akmil",
        "university": "akmil",
        "platform_name": "AKMIL", 
        "category": "pk",
        "logo_image_url":  "akmil/images/header-logo.png",
        "ENABLE_MKTG_SITE":  false,
        "SITE_NAME": "akmil.localhost",
        "course_org_filter": "AkmiL",
        "css_overrides_file":  "akmil/css/style.css"
      },
      "secaba": {
        "domain_prefix": "secaba",
        "university": "secaba",
        "platform_name": "SECABA",
        "category": "pk",
        "logo_image_url":  "secaba/images/header-logo.png",
        "ENABLE_MKTG_SITE":  false,
        "SITE_NAME": "secaba.localhost",
        "course_org_filter": "SecabA",
        "css_overrides_file":  "secaba/css/style.css"
      },
      "sepapk": {
        "domain_prefix": "sepapk",
        "university": "sepapk",
        "platform_name": "SEPAPK",
        "category": "pk",
        "logo_image_url":  "sepapk/images/header-logo.png",
        "ENABLE_MKTG_SITE":  false,
        "SITE_NAME": "sepapk.localhost",
        "course_org_filter": "SepapK",
        "css_overrides_file":  "sepapk/css/style.css"
      },
      "secabareg": {
        "domain_prefix": "secabareg",
        "university": "secabareg",
        "platform_name": "SECABAREG",
        "category": "reg",
        "logo_image_url":  "secabareg/images/header-logo.png",
        "ENABLE_MKTG_SITE":  false,
        "SITE_NAME": "secabareg.localhost",
        "course_org_filter": "SecabareG",
        "css_overrides_file":  "secabareg/css/style.css"
      },
      "secapareg": {
        "domain_prefix": "secapareg",
        "university": "secapareg",
        "platform_name": "SECAPAREG",
        "category": "reg",
        "logo_image_url":  "secapareg/images/header-logo.png",
        "ENABLE_MKTG_SITE":  false,
        "SITE_NAME": "secapareg.localhost",
        "course_org_filter": "SecapareG",
        "css_overrides_file":  "secapareg/css/style.css"
      },
      "secata": {
        "domain_prefix": "secata",
        "university": "secata",
        "platform_name": "SECATA",
        "category": "pk",
        "logo_image_url":  "secata/images/header-logo.png",
        "ENABLE_MKTG_SITE":  false,
        "SITE_NAME": "secata.localhost",
        "course_org_filter": "SecatA",
        "css_overrides_file":  "secata/css/style.css"
      },
      "diklapa1": {
        "domain_prefix": "diklapa1",
        "university": "diklapa1",
        "platform_name": "DIKLAPA I",
        "category": "reg",
        "logo_image_url":  "diklapa1/images/header-logo.png",
        "ENABLE_MKTG_SITE":  false,
        "SITE_NAME": "diklapa1.localhost",
        "course_org_filter": "DiklapaI",
        "css_overrides_file":  "diklapa1/css/style.css"
      },
      "diklapa2": {
        "domain_prefix": "diklapa2",
        "university": "diklapa2",
        "platform_name": "DIKLAPA II",
        "category": "reg",
        "logo_image_url":  "diklapa2/images/header-logo.png",
        "ENABLE_MKTG_SITE":  false,
        "SITE_NAME": "diklapa2.localhost",
        "course_org_filter": "DiklapaiI",
        "css_overrides_file":  "diklapa2/css/style.css"
      },
      "seskoad": {
        "domain_prefix": "seskoad",
        "university": "seskoad",
        "platform_name": "SESKOAD",
        "category": "reg",
        "logo_image_url":  "seskoad/images/header-logo.png",
        "ENABLE_MKTG_SITE":  false,
        "SITE_NAME": "seskoad.localhost",
        "course_org_filter": "SeskoaD",
        "css_overrides_file":  "seskoad/css/style.css"
      }
    },
    "MICROSITE_ROOT_DIR": "/edx/app/edxapp/edx-microsite", 
    "MKTG_URLS": {}, 
    "MKTG_URL_LINK_MAP": {}, 
    "MOBILE_STORE_URLS": {}, 
    "OAUTH_OIDC_ISSUER": "https://localhost:80/oauth2", 
    "ONLOAD_BEACON_SAMPLE_RATE": 0.0, 
    "ORA2_FILE_PREFIX": "default_env-default_deployment/ora2", 
    "PARTNER_SUPPORT_EMAIL": "", 
    "PAYMENT_SUPPORT_EMAIL": "billing@example.com", 
    "PERFORMANCE_GRAPHITE_URL": "SetPerformanceGraphiteHostName", 
    "PLATFORM_NAME": "Your Platform Name Here", 
    "PRESS_EMAIL": "press@example.com", 
    "REGISTRATION_EXTRA_FIELDS": {
        "city": "hidden", 
        "country": "hidden", 
        "gender": "optional", 
        "goals": "optional", 
        "honor_code": "required", 
        "level_of_education": "optional", 
        "mailing_address": "optional", 
        "year_of_birth": "optional"
    }, 
    "SERVER_EMAIL": "devops@example.com", 
    "SESSION_COOKIE_DOMAIN": "", 
    "SESSION_COOKIE_NAME": "sessionid", 
    "SESSION_COOKIE_SECURE": false, 
    "SESSION_SAVE_EVERY_REQUEST": false, 
    "SITE_NAME": "localhost", 
    "SOCIAL_MEDIA_FOOTER_URLS": {}, 
    "SOCIAL_SHARING_SETTINGS": {
        "CERTIFICATE_FACEBOOK": false, 
        "CERTIFICATE_TWITTER": false, 
        "CUSTOM_COURSE_URLS": false, 
        "DASHBOARD_FACEBOOK": false, 
        "DASHBOARD_TWITTER": false
    }, 
    "STATIC_ROOT_BASE": "/edx/var/edxapp/staticfiles", 
    "STATIC_URL_BASE": "/static/", 
    "STUDIO_NAME": "Studio", 
    "STUDIO_SHORT_NAME": "Studio", 
    "SUPPORT_SITE_LINK": "", 
    "SYSLOG_SERVER": "", 
    "TECH_SUPPORT_EMAIL": "technical@example.com", 
    "THEME_NAME": "", 
    "TIME_ZONE": "America/New_York", 
    "UNIVERSITY_EMAIL": "university@example.com", 
    "VIDEO_UPLOAD_PIPELINE": {
        "BUCKET": "", 
        "ROOT_PATH": ""
    }, 
    "VIRTUAL_UNIVERSITIES": [], 
    "WIKI_ENABLED": true, 
    "XBLOCK_FS_STORAGE_BUCKET": null, 
    "XBLOCK_FS_STORAGE_PREFIX": null, 
    "XBLOCK_SETTINGS": {}, 
    "ZENDESK_URL": ""
}
